Lab3/build_test/vlt_dump.vcd
$version Generated by VerilatedVcd $end
$date Mon Jan 27 20:06:31 2025
 $end
$timescale   1ps $end

 $scope module TOP $end
  $var wire  1 C clk $end
  $scope module pe_top $end
   $var wire 32 I ADDR_WIDTH [31:0] $end
   $var wire 32 I DATA_WIDTH [31:0] $end
   $var wire 32 H FILTER_NUM [31:0] $end
   $var wire 32 G FILTER_SIZE [31:0] $end
   $var wire 32 M IM2COL_BASE [31:0] $end
   $var wire 32 K IMG_BASE [31:0] $end
   $var wire 32 E IMG_C [31:0] $end
   $var wire 32 F IMG_H [31:0] $end
   $var wire 32 G IMG_W [31:0] $end
   $var wire 32 H K [31:0] $end
   $var wire 32 F M [31:0] $end
   $var wire 32 J MEM_SIZE [31:0] $end
   $var wire 32 E N [31:0] $end
   $var wire 32 N OUTPUT_BASE [31:0] $end
   $var wire 64 ' W [63:0] $end
   $var wire 32 L WEIGHT_BASE [31:0] $end
   $var wire 64 6 W_buffer(0) [63:0] $end
   $var wire 64 8 W_buffer(1) [63:0] $end
   $var wire 64 : W_buffer(2) [63:0] $end
   $var wire 64 < W_buffer(3) [63:0] $end
   $var wire 96 $ X [95:0] $end
   $var wire 96 * X_buffer(0) [95:0] $end
   $var wire 96 - X_buffer(1) [95:0] $end
   $var wire 96 0 X_buffer(2) [95:0] $end
   $var wire 96 3 X_buffer(3) [95:0] $end
   $var wire 32 ) X_count [31:0] $end
   $var wire 192 O Y [191:0] $end
   $var wire 32 U addr_rd [31:0] $end
   $var wire 32 V addr_wr [31:0] $end
   $var wire  1 C clk $end
   $var wire 32 D data_rd [31:0] $end
   $var wire 32 W data_wr [31:0] $end
   $var wire  1 # im2col_done $end
   $var wire  1 X mem_wr_en $end
   $var wire  2 B rst_cnt [1:0] $end
   $var wire  1 > rst_im2col $end
   $var wire  1 A rst_n $end
   $var wire  1 ? rst_systolic $end
   $var wire  2 @ state [1:0] $end
   $var wire  1 Y systolic_done $end
   $scope module im2col $end
    $var wire 32 I ADDR_WIDTH [31:0] $end
    $var wire 32 I DATA_WIDTH [31:0] $end
    $var wire 32 G FILTER_SIZE [31:0] $end
    $var wire 32 M IM2COL_BASE [31:0] $end
    $var wire 32 K IMG_BASE [31:0] $end
    $var wire 32 E IMG_C [31:0] $end
    $var wire 32 F IMG_H [31:0] $end
    $var wire 32 G IMG_W [31:0] $end
    $var wire 32 U addr_rd [31:0] $end
    $var wire 32 V addr_wr [31:0] $end
    $var wire  1 C clk $end
    $var wire 32 D data_rd [31:0] $end
    $var wire 32 W data_wr [31:0] $end
    $var wire  1 # done $end
    $var wire  1 X mem_wr_en $end
    $var wire  1 > rst_n $end
   $upscope $end
   $scope module systolic_array $end
    $var wire 32 I DATA_WIDTH [31:0] $end
    $var wire 32 H K [31:0] $end
    $var wire 32 F M [31:0] $end
    $var wire 32 E N [31:0] $end
    $var wire 64 ' W [63:0] $end
    $var wire 96 $ X [95:0] $end
    $var wire 192 O Y [191:0] $end
    $var wire  1 C clk $end
    $var wire  1 Y done $end
    $var wire  1 ? rst_n $end
   $upscope $end
  $upscope $end
 $upscope $end
$enddefinitions $end


#0
1#
b000000000000000000000000000000000000000000000000000000000000000000000000000000000000000000000000 $
b0000000000000000000000000000000000000000000000000000000000000000 '
b00000000000000000000000000000000 )
b000000000000000000000000000000000000000000000000000000000000000000000000000000000000000000000000 *
b000000000000000000000000000000000000000000000000000000000000000000000000000000000000000000000000 -
b000000000000000000000000000000000000000000000000000000000000000000000000000000000000000000000000 0
b000000000000000000000000000000000000000000000000000000000000000000000000000000000000000000000000 3
b0000000000000000000000000000000000000000000000000000000000000000 6
b0000000000000000000000000000000000000000000000000000000000000000 8
b0000000000000000000000000000000000000000000000000000000000000000 :
b0000000000000000000000000000000000000000000000000000000000000000 <
0>
0?
b00 @
0A
b11 B
0C
b00000000000000000000000000000000 D
b00000000000000000000000000000100 E
b00000000000000000000000000000011 F
b00000000000000000000000000000001 G
b00000000000000000000000000000010 H
b00000000000000000000000000100000 I
b00000000000000000101000000000000 J
b00000000000000000000000000000000 K
b00000000000000000001000000000000 L
b00000000000000000010000000000000 M
b00000000000000000011000000000000 N
b000000000000000000000000000000000000000000000000000000000000000000000000000000000000000000000000000000000000000000000000000000000000000000000000000000000000000000000000000000000000000000000000 O
b00000000000000000000000000000000 U
b00000000000000000000000000000000 V
b00000000000000000000000000000000 W
0X
0Y
#1
b10 B
1C
b00000000000000000000000010110010 D
#2
0C
#3
b01 B
1C
#4
0C
#5
1A
b00 B
1C
#6
0C
#7
b01 @
0A
1C
#8
0C
#9
1>
b10 @
1C
#10
0C
#11
0>
1?
1C
#12
0C
#13
b00000000000000000000000000000001 )
1C
#14
0C
#15
b00000000000000000000000000000010 )
1C
#16
0C
#17
b00000000000000000000000000000011 )
1C
#18
0C
#19
b00000000000000000000000000000100 )
1C
#20
0C
#21
b00000000000000000000000000000101 )
1C
#22
0C
#23
b00000000000000000000000000000110 )
1C
#24
0C
#25
b00000000000000000000000000000111 )
1C
#26
0C
#27
b00000000000000000000000000001000 )
1C
#28
0C
#29
b00000000000000000000000000001001 )
1C
#30
0C
#31
b00000000000000000000000000001010 )
1C
#32
0C
#33
b00000000000000000000000000001011 )
1C
#34
0C
#35
b00000000000000000000000000001100 )
1C
#36
0C
#37
b00000000000000000000000000001101 )
1C
#38
0C
#39
b00000000000000000000000000001110 )
1C
#40
0C
#41
b00000000000000000000000000001111 )
1C
#42
0C
#43
b00000000000000000000000000010000 )
1C
#44
0C
#45
b00000000000000000000000000010001 )
1C
#46
0C
#47
b00000000000000000000000000010010 )
1C
#48
0C
#49
b00000000000000000000000000010011 )
1C
#50
0C
#51
b00000000000000000000000000010100 )
1C
#52
0C
#53
b00000000000000000000000000010101 )
1C
#54
0C
#55
b00000000000000000000000000010110 )
1C
#56
0C
#57
b00000000000000000000000000010111 )
1C
#58
0C
#59
b00000000000000000000000000011000 )
1C
#60
0C
#61
b00000000000000000000000000011001 )
1C
#62
0C
#63
b00000000000000000000000000011010 )
1C
#64
0C
#65
b00000000000000000000000000011011 )
1C
#66
0C
#67
b00000000000000000000000000011100 )
1C
#68
0C
#69
b00000000000000000000000000011101 )
1C
#70
0C
#71
b00000000000000000000000000011110 )
1C
#72
0C
#73
b00000000000000000000000000011111 )
1C
#74
0C
#75
b00000000000000000000000000100000 )
1C
#76
0C
#77
b00000000000000000000000000100001 )
1C
#78
0C
#79
b00000000000000000000000000100010 )
1C
#80
0C
#81
b00000000000000000000000000100011 )
1C
#82
0C
#83
b00000000000000000000000000100100 )
1C
#84
0C
#85
b00000000000000000000000000100101 )
1C
#86
0C
#87
b00000000000000000000000000100110 )
1C
#88
0C
#89
b00000000000000000000000000100111 )
1C
#90
0C
#91
b00000000000000000000000000101000 )
1C
#92
0C
#93
b00000000000000000000000000101001 )
1C
#94
0C
#95
b00000000000000000000000000101010 )
1C
#96
0C
#97
b00000000000000000000000000101011 )
1C
#98
0C
#99
b00000000000000000000000000101100 )
1C
#100
0C
#101
b00000000000000000000000000101101 )
1C
#102
0C
#103
b00000000000000000000000000101110 )
1C
#104
0C
#105
b00000000000000000000000000101111 )
1C
#106
0C
#107
b00000000000000000000000000110000 )
1C
#108
0C
#109
b00000000000000000000000000110001 )
1C
#110
0C
#111
b00000000000000000000000000110010 )
1C
#112
0C
#113
b00000000000000000000000000110011 )
1C
#114
0C
#115
b00000000000000000000000000110100 )
1C
#116
0C
#117
b00000000000000000000000000110101 )
1C
#118
0C
#119
b00000000000000000000000000110110 )
1C
#120
0C
#121
b00000000000000000000000000110111 )
1C
#122
0C
#123
b00000000000000000000000000111000 )
1C
#124
0C
#125
b00000000000000000000000000111001 )
1C
#126
0C
#127
b00000000000000000000000000111010 )
1C
#128
0C
#129
b00000000000000000000000000111011 )
1C
#130
0C
#131
b00000000000000000000000000111100 )
1C
#132
0C
#133
b00000000000000000000000000111101 )
1C
#134
0C
#135
b00000000000000000000000000111110 )
1C
#136
0C
#137
b00000000000000000000000000111111 )
1C
#138
0C
#139
b00000000000000000000000001000000 )
1C
#140
0C
#141
b00000000000000000000000001000001 )
1C
#142
0C
#143
b00000000000000000000000001000010 )
1C
#144
0C
#145
b00000000000000000000000001000011 )
1C
#146
0C
#147
b00000000000000000000000001000100 )
1C
#148
0C
#149
b00000000000000000000000001000101 )
1C
#150
0C
#151
b00000000000000000000000001000110 )
1C
#152
0C
#153
b00000000000000000000000001000111 )
1C
#154
0C
#155
b00000000000000000000000001001000 )
1C
#156
0C
#157
b00000000000000000000000001001001 )
1C
#158
0C
#159
b00000000000000000000000001001010 )
1C
#160
0C
#161
b00000000000000000000000001001011 )
1C
#162
0C
#163
b00000000000000000000000001001100 )
1C
#164
0C
#165
b00000000000000000000000001001101 )
1C
#166
0C
#167
b00000000000000000000000001001110 )
1C
#168
0C
#169
b00000000000000000000000001001111 )
1C
#170
0C
#171
b00000000000000000000000001010000 )
1C
#172
0C
#173
b00000000000000000000000001010001 )
1C
#174
0C
#175
b00000000000000000000000001010010 )
1C
#176
0C
#177
b00000000000000000000000001010011 )
1C
#178
0C
#179
b00000000000000000000000001010100 )
1C
#180
0C
#181
b00000000000000000000000001010101 )
1C
#182
0C
#183
b00000000000000000000000001010110 )
1C
#184
0C
#185
b00000000000000000000000001010111 )
1C
#186
0C
#187
b00000000000000000000000001011000 )
1C
#188
0C
#189
b00000000000000000000000001011001 )
1C
#190
0C
#191
b00000000000000000000000001011010 )
1C
#192
0C
#193
b00000000000000000000000001011011 )
1C
#194
0C
#195
b00000000000000000000000001011100 )
1C
#196
0C
#197
b00000000000000000000000001011101 )
1C
#198
0C
#199
b00000000000000000000000001011110 )
1C
#200
0C
#201
b00000000000000000000000001011111 )
1C
#202
0C
#203
b00000000000000000000000001100000 )
1C
#204
0C
#205
b00000000000000000000000001100001 )
1C
#206
0C
#207
b00000000000000000000000001100010 )
1C
#208
0C
#209
b00000000000000000000000001100011 )
1C
#210
0C
#211
b00000000000000000000000001100100 )
1C
#212
0C
#213
b00000000000000000000000001100101 )
1C
#214
0C
#215
b00000000000000000000000001100110 )
1C
#216
0C
#217
b00000000000000000000000001100111 )
1C
#218
0C
#219
b00000000000000000000000001101000 )
1C
#220
0C
#221
b00000000000000000000000001101001 )
1C
#222
0C
#223
b00000000000000000000000001101010 )
1C
#224
0C
#225
b00000000000000000000000001101011 )
1C
#226
0C
#227
b00000000000000000000000001101100 )
1C
#228
0C
#229
b00000000000000000000000001101101 )
1C
#230
0C
#231
b00000000000000000000000001101110 )
1C
#232
0C
#233
b00000000000000000000000001101111 )
1C
#234
0C
#235
b00000000000000000000000001110000 )
1C
#236
0C
#237
b00000000000000000000000001110001 )
1C
#238
0C
#239
b00000000000000000000000001110010 )
1C
#240
0C
#241
b00000000000000000000000001110011 )
1C
#242
0C
#243
b00000000000000000000000001110100 )
1C
#244
0C
#245
b00000000000000000000000001110101 )
1C
#246
0C
#247
b00000000000000000000000001110110 )
1C
#248
0C
#249
b00000000000000000000000001110111 )
1C
#250
0C
#251
b00000000000000000000000001111000 )
1C
#252
0C
#253
b00000000000000000000000001111001 )
1C
#254
0C
#255
b00000000000000000000000001111010 )
1C
#256
0C
#257
b00000000000000000000000001111011 )
1C
#258
0C
#259
b00000000000000000000000001111100 )
1C
#260
0C
#261
b00000000000000000000000001111101 )
1C
#262
0C
#263
b00000000000000000000000001111110 )
1C
#264
0C
#265
b00000000000000000000000001111111 )
1C
#266
0C
#267
b00000000000000000000000010000000 )
1C
#268
0C
#269
b00000000000000000000000010000001 )
1C
#270
0C
#271
b00000000000000000000000010000010 )
1C
#272
0C
#273
b00000000000000000000000010000011 )
1C
#274
0C
#275
b00000000000000000000000010000100 )
1C
#276
0C
#277
b00000000000000000000000010000101 )
1C
#278
0C
#279
b00000000000000000000000010000110 )
1C
#280
0C
#281
b00000000000000000000000010000111 )
1C
#282
0C
#283
b00000000000000000000000010001000 )
1C
#284
0C
#285
b00000000000000000000000010001001 )
1C
#286
0C
#287
b00000000000000000000000010001010 )
1C
#288
0C
#289
b00000000000000000000000010001011 )
1C
#290
0C
#291
b00000000000000000000000010001100 )
1C
#292
0C
#293
b00000000000000000000000010001101 )
1C
#294
0C
#295
b00000000000000000000000010001110 )
1C
#296
0C
#297
b00000000000000000000000010001111 )
1C
#298
0C
#299
b00000000000000000000000010010000 )
1C
#300
0C
#301
b00000000000000000000000010010001 )
1C
#302
0C
#303
b00000000000000000000000010010010 )
1C
#304
0C
#305
b00000000000000000000000010010011 )
1C
#306
0C
#307
b00000000000000000000000010010100 )
1C
#308
0C
#309
b00000000000000000000000010010101 )
1C
#310
0C
#311
b00000000000000000000000010010110 )
1C
#312
0C
#313
b00000000000000000000000010010111 )
1C
#314
0C
#315
b00000000000000000000000010011000 )
1C
#316
0C
#317
b00000000000000000000000010011001 )
1C
#318
0C
#319
b00000000000000000000000010011010 )
1C
#320
0C
#321
b00000000000000000000000010011011 )
1C
#322
0C
#323
b00000000000000000000000010011100 )
1C
#324
0C
#325
b00000000000000000000000010011101 )
1C
#326
0C
#327
b00000000000000000000000010011110 )
1C
#328
0C
#329
b00000000000000000000000010011111 )
1C
#330
0C
#331
b00000000000000000000000010100000 )
1C
#332
0C
#333
b00000000000000000000000010100001 )
1C
#334
0C
#335
b00000000000000000000000010100010 )
1C
#336
0C
#337
b00000000000000000000000010100011 )
1C
#338
0C
#339
b00000000000000000000000010100100 )
1C
#340
0C
#341
b00000000000000000000000010100101 )
1C
#342
0C
#343
b00000000000000000000000010100110 )
1C
#344
0C
#345
b00000000000000000000000010100111 )
1C
#346
0C
#347
b00000000000000000000000010101000 )
1C
#348
0C
#349
b00000000000000000000000010101001 )
1C
#350
0C
#351
b00000000000000000000000010101010 )
1C
#352
0C
#353
b00000000000000000000000010101011 )
1C
#354
0C
#355
b00000000000000000000000010101100 )
1C
#356
0C
#357
b00000000000000000000000010101101 )
1C
#358
0C
#359
b00000000000000000000000010101110 )
1C
#360
0C
#361
b00000000000000000000000010101111 )
1C
#362
0C
#363
b00000000000000000000000010110000 )
1C
#364
0C
#365
b00000000000000000000000010110001 )
1C
#366
0C
#367
b00000000000000000000000010110010 )
1C
#368
0C
#369
b00000000000000000000000010110011 )
1C
#370
0C
#371
b00000000000000000000000010110100 )
1C
#372
0C
#373
b00000000000000000000000010110101 )
1C
#374
0C
#375
b00000000000000000000000010110110 )
1C
#376
0C
#377
b00000000000000000000000010110111 )
1C
#378
0C
#379
b00000000000000000000000010111000 )
1C
#380
0C
#381
b00000000000000000000000010111001 )
1C
#382
0C
#383
b00000000000000000000000010111010 )
1C
#384
0C
#385
b00000000000000000000000010111011 )
1C
#386
0C
#387
b00000000000000000000000010111100 )
1C
#388
0C
#389
b00000000000000000000000010111101 )
1C
#390
0C
#391
b00000000000000000000000010111110 )
1C
#392
0C
#393
b00000000000000000000000010111111 )
1C
#394
0C
#395
b00000000000000000000000011000000 )
1C
#396
0C
#397
b00000000000000000000000011000001 )
1C
#398
0C
#399
b00000000000000000000000011000010 )
1C
#400
0C
#401
b00000000000000000000000011000011 )
1C
#402
0C
#403
b00000000000000000000000011000100 )
1C
#404
0C
#405
b00000000000000000000000011000101 )
1C
#406
0C
#407
b00000000000000000000000011000110 )
1C
#408
0C
#409
b00000000000000000000000011000111 )
1C
#410
0C
#411
b00000000000000000000000011001000 )
1C
#412
0C
#413
b00000000000000000000000011001001 )
1C
#414
0C
#415
b00000000000000000000000011001010 )
1C
#416
0C
#417
b00000000000000000000000011001011 )
1C
#418
0C
#419
b00000000000000000000000011001100 )
1C
#420
0C
#421
b00000000000000000000000011001101 )
1C
#422
0C
#423
b00000000000000000000000011001110 )
1C
#424
0C
#425
b00000000000000000000000011001111 )
1C
#426
0C
#427
b00000000000000000000000011010000 )
1C
#428
0C
#429
b00000000000000000000000011010001 )
1C
#430
0C
#431
b00000000000000000000000011010010 )
1C
#432
0C
#433
b00000000000000000000000011010011 )
1C
#434
0C
#435
b00000000000000000000000011010100 )
1C
#436
0C
#437
b00000000000000000000000011010101 )
1C
#438
0C
#439
b00000000000000000000000011010110 )
1C
#440
0C
#441
b00000000000000000000000011010111 )
1C
#442
0C
#443
b00000000000000000000000011011000 )
1C
#444
0C
#445
b00000000000000000000000011011001 )
1C
#446
0C
#447
b00000000000000000000000011011010 )
1C
#448
0C
#449
b00000000000000000000000011011011 )
1C
#450
0C
#451
b00000000000000000000000011011100 )
1C
#452
0C
#453
b00000000000000000000000011011101 )
1C
#454
0C
#455
b00000000000000000000000011011110 )
1C
#456
0C
#457
b00000000000000000000000011011111 )
1C
#458
0C
#459
b00000000000000000000000011100000 )
1C
#460
0C
#461
b00000000000000000000000011100001 )
1C
#462
0C
#463
b00000000000000000000000011100010 )
1C
#464
0C
#465
b00000000000000000000000011100011 )
1C
#466
0C
#467
b00000000000000000000000011100100 )
1C
#468
0C
#469
b00000000000000000000000011100101 )
1C
#470
0C
#471
b00000000000000000000000011100110 )
1C
#472
0C
#473
b00000000000000000000000011100111 )
1C
#474
0C
#475
b00000000000000000000000011101000 )
1C
#476
0C
#477
b00000000000000000000000011101001 )
1C
#478
0C
#479
b00000000000000000000000011101010 )
1C
#480
0C
#481
b00000000000000000000000011101011 )
1C
#482
0C
#483
b00000000000000000000000011101100 )
1C
#484
0C
#485
b00000000000000000000000011101101 )
1C
#486
0C
#487
b00000000000000000000000011101110 )
1C
#488
0C
#489
b00000000000000000000000011101111 )
1C
#490
0C
#491
b00000000000000000000000011110000 )
1C
#492
0C
#493
b00000000000000000000000011110001 )
1C
#494
0C
#495
b00000000000000000000000011110010 )
1C
#496
0C
#497
b00000000000000000000000011110011 )
1C
#498
0C
#499
b00000000000000000000000011110100 )
1C
#500
0C
#501
b00000000000000000000000011110101 )
1C
#502
0C
#503
b00000000000000000000000011110110 )
1C
#504
0C
#505
b00000000000000000000000011110111 )
1C
#506
0C
#507
b00000000000000000000000011111000 )
1C
#508
0C
#509
b00000000000000000000000011111001 )
1C
#510
0C
#511
b00000000000000000000000011111010 )
1C
#512
0C
#513
b00000000000000000000000011111011 )
1C
#514
0C
#515
b00000000000000000000000011111100 )
1C
#516
0C
#517
b00000000000000000000000011111101 )
1C
#518
0C
#519
b00000000000000000000000011111110 )
1C
#520
0C
#521
b00000000000000000000000011111111 )
1C
#522
0C
#523
b00000000000000000000000100000000 )
1C
#524
0C
#525
b00000000000000000000000100000001 )
1C
#526
0C
#527
b00000000000000000000000100000010 )
1C
#528
0C
#529
b00000000000000000000000100000011 )
1C
#530
0C
#531
b00000000000000000000000100000100 )
1C
#532
0C
#533
b00000000000000000000000100000101 )
1C
#534
0C
#535
b00000000000000000000000100000110 )
1C
#536
0C
#537
b00000000000000000000000100000111 )
1C
#538
0C
#539
b00000000000000000000000100001000 )
1C
#540
0C
#541
b00000000000000000000000100001001 )
1C
#542
0C
#543
b00000000000000000000000100001010 )
1C
#544
0C
#545
b00000000000000000000000100001011 )
1C
#546
0C
#547
b00000000000000000000000100001100 )
1C
#548
0C
#549
b00000000000000000000000100001101 )
1C
#550
0C
#551
b00000000000000000000000100001110 )
1C
#552
0C
#553
b00000000000000000000000100001111 )
1C
#554
0C
#555
b00000000000000000000000100010000 )
1C
#556
0C
#557
b00000000000000000000000100010001 )
1C
#558
0C
#559
b00000000000000000000000100010010 )
1C
#560
0C
#561
b00000000000000000000000100010011 )
1C
#562
0C
#563
b00000000000000000000000100010100 )
1C
#564
0C
#565
b00000000000000000000000100010101 )
1C
#566
0C
#567
b00000000000000000000000100010110 )
1C
#568
0C
#569
b00000000000000000000000100010111 )
1C
#570
0C
#571
b00000000000000000000000100011000 )
1C
#572
0C
#573
b00000000000000000000000100011001 )
1C
#574
0C
#575
b00000000000000000000000100011010 )
1C
#576
0C
#577
b00000000000000000000000100011011 )
1C
#578
0C
#579
b00000000000000000000000100011100 )
1C
#580
0C
#581
b00000000000000000000000100011101 )
1C
#582
0C
#583
b00000000000000000000000100011110 )
1C
#584
0C
#585
b00000000000000000000000100011111 )
1C
#586
0C
#587
b00000000000000000000000100100000 )
1C
#588
0C
#589
b00000000000000000000000100100001 )
1C
#590
0C
#591
b00000000000000000000000100100010 )
1C
#592
0C
#593
b00000000000000000000000100100011 )
1C
#594
0C
#595
b00000000000000000000000100100100 )
1C
#596
0C
#597
b00000000000000000000000100100101 )
1C
#598
0C
#599
b00000000000000000000000100100110 )
1C
#600
0C
#601
b00000000000000000000000100100111 )
1C
#602
0C
#603
b00000000000000000000000100101000 )
1C
#604
0C
#605
b00000000000000000000000100101001 )
1C
#606
0C
#607
b00000000000000000000000100101010 )
1C
#608
0C
#609
b00000000000000000000000100101011 )
1C
#610
0C
#611
b00000000000000000000000100101100 )
1C
#612
0C
#613
b00000000000000000000000100101101 )
1C
#614
0C
#615
b00000000000000000000000100101110 )
1C
#616
0C
#617
b00000000000000000000000100101111 )
1C
#618
0C
#619
b00000000000000000000000100110000 )
1C
#620
0C
#621
b00000000000000000000000100110001 )
1C
#622
0C
#623
b00000000000000000000000100110010 )
1C
#624
0C
#625
b00000000000000000000000100110011 )
1C
#626
0C
#627
b00000000000000000000000100110100 )
1C
#628
0C
#629
b00000000000000000000000100110101 )
1C
#630
0C
#631
b00000000000000000000000100110110 )
1C
#632
0C
#633
b00000000000000000000000100110111 )
1C
#634
0C
#635
b00000000000000000000000100111000 )
1C
#636
0C
#637
b00000000000000000000000100111001 )
1C
#638
0C
#639
b00000000000000000000000100111010 )
1C
#640
0C
#641
b00000000000000000000000100111011 )
1C
#642
0C
#643
b00000000000000000000000100111100 )
1C
#644
0C
#645
b00000000000000000000000100111101 )
1C
#646
0C
#647
b00000000000000000000000100111110 )
1C
#648
0C
#649
b00000000000000000000000100111111 )
1C
#650
0C
#651
b00000000000000000000000101000000 )
1C
#652
0C
#653
b00000000000000000000000101000001 )
1C
#654
0C
#655
b00000000000000000000000101000010 )
1C
#656
0C
#657
b00000000000000000000000101000011 )
1C
#658
0C
#659
b00000000000000000000000101000100 )
1C
#660
0C
#661
b00000000000000000000000101000101 )
1C
#662
0C
#663
b00000000000000000000000101000110 )
1C
#664
0C
#665
b00000000000000000000000101000111 )
1C
#666
0C
#667
b00000000000000000000000101001000 )
1C
#668
0C
#669
b00000000000000000000000101001001 )
1C
#670
0C
#671
b00000000000000000000000101001010 )
1C
#672
0C
#673
b00000000000000000000000101001011 )
1C
#674
0C
#675
b00000000000000000000000101001100 )
1C
#676
0C
#677
b00000000000000000000000101001101 )
1C
#678
0C
#679
b00000000000000000000000101001110 )
1C
#680
0C
#681
b00000000000000000000000101001111 )
1C
#682
0C
#683
b00000000000000000000000101010000 )
1C
#684
0C
#685
b00000000000000000000000101010001 )
1C
#686
0C
#687
b00000000000000000000000101010010 )
1C
#688
0C
#689
b00000000000000000000000101010011 )
1C
#690
0C
#691
b00000000000000000000000101010100 )
1C
#692
0C
#693
b00000000000000000000000101010101 )
1C
#694
0C
#695
b00000000000000000000000101010110 )
1C
#696
0C
#697
b00000000000000000000000101010111 )
1C
#698
0C
#699
b00000000000000000000000101011000 )
1C
#700
0C
#701
b00000000000000000000000101011001 )
1C
#702
0C
#703
b00000000000000000000000101011010 )
1C
#704
0C
#705
b00000000000000000000000101011011 )
1C
#706
0C
#707
b00000000000000000000000101011100 )
1C
#708
0C
#709
b00000000000000000000000101011101 )
1C
#710
0C
#711
b00000000000000000000000101011110 )
1C
#712
0C
#713
b00000000000000000000000101011111 )
1C
#714
0C
#715
b00000000000000000000000101100000 )
1C
#716
0C
#717
b00000000000000000000000101100001 )
1C
#718
0C
#719
b00000000000000000000000101100010 )
1C
#720
0C
#721
b00000000000000000000000101100011 )
1C
#722
0C
#723
b00000000000000000000000101100100 )
1C
#724
0C
#725
b00000000000000000000000101100101 )
1C
#726
0C
#727
b00000000000000000000000101100110 )
1C
#728
0C
#729
b00000000000000000000000101100111 )
1C
#730
0C
#731
b00000000000000000000000101101000 )
1C
#732
0C
#733
b00000000000000000000000101101001 )
1C
#734
0C
#735
b00000000000000000000000101101010 )
1C
#736
0C
#737
b00000000000000000000000101101011 )
1C
#738
0C
#739
b00000000000000000000000101101100 )
1C
#740
0C
#741
b00000000000000000000000101101101 )
1C
#742
0C
#743
b00000000000000000000000101101110 )
1C
#744
0C
#745
b00000000000000000000000101101111 )
1C
#746
0C
#747
b00000000000000000000000101110000 )
1C
#748
0C
#749
b00000000000000000000000101110001 )
1C
#750
0C
#751
b00000000000000000000000101110010 )
1C
#752
0C
#753
b00000000000000000000000101110011 )
1C
#754
0C
#755
b00000000000000000000000101110100 )
1C
#756
0C
#757
b00000000000000000000000101110101 )
1C
#758
0C
#759
b00000000000000000000000101110110 )
1C
#760
0C
#761
b00000000000000000000000101110111 )
1C
#762
0C
#763
b00000000000000000000000101111000 )
1C
#764
0C
#765
b00000000000000000000000101111001 )
1C
#766
0C
#767
b00000000000000000000000101111010 )
1C
#768
0C
#769
b00000000000000000000000101111011 )
1C
#770
0C
#771
b00000000000000000000000101111100 )
1C
#772
0C
#773
b00000000000000000000000101111101 )
1C
#774
0C
#775
b00000000000000000000000101111110 )
1C
#776
0C
#777
b00000000000000000000000101111111 )
1C
#778
0C
#779
b00000000000000000000000110000000 )
1C
#780
0C
#781
b00000000000000000000000110000001 )
1C
#782
0C
#783
b00000000000000000000000110000010 )
1C
#784
0C
#785
b00000000000000000000000110000011 )
1C
#786
0C
#787
b00000000000000000000000110000100 )
1C
#788
0C
#789
b00000000000000000000000110000101 )
1C
#790
0C
#791
b00000000000000000000000110000110 )
1C
#792
0C
#793
b00000000000000000000000110000111 )
1C
#794
0C
#795
b00000000000000000000000110001000 )
1C
#796
0C
#797
b00000000000000000000000110001001 )
1C
#798
0C
#799
b00000000000000000000000110001010 )
1C
#800
0C
#801
b00000000000000000000000110001011 )
1C
#802
0C
#803
b00000000000000000000000110001100 )
1C
#804
0C
#805
b00000000000000000000000110001101 )
1C
#806
0C
#807
b00000000000000000000000110001110 )
1C
#808
0C
#809
b00000000000000000000000110001111 )
1C
#810
0C
#811
b00000000000000000000000110010000 )
1C
#812
0C
#813
b00000000000000000000000110010001 )
1C
#814
0C
#815
b00000000000000000000000110010010 )
1C
#816
0C
#817
b00000000000000000000000110010011 )
1C
#818
0C
#819
b00000000000000000000000110010100 )
1C
#820
0C
#821
b00000000000000000000000110010101 )
1C
#822
0C
#823
b00000000000000000000000110010110 )
1C
#824
0C
#825
b00000000000000000000000110010111 )
1C
#826
0C
#827
b00000000000000000000000110011000 )
1C
#828
0C
#829
b00000000000000000000000110011001 )
1C
#830
0C
#831
b00000000000000000000000110011010 )
1C
#832
0C
#833
b00000000000000000000000110011011 )
1C
#834
0C
#835
b00000000000000000000000110011100 )
1C
#836
0C
#837
b00000000000000000000000110011101 )
1C
#838
0C
#839
b00000000000000000000000110011110 )
1C
#840
0C
#841
b00000000000000000000000110011111 )
1C
#842
0C
#843
b00000000000000000000000110100000 )
1C
#844
0C
#845
b00000000000000000000000110100001 )
1C
#846
0C
#847
b00000000000000000000000110100010 )
1C
#848
0C
#849
b00000000000000000000000110100011 )
1C
#850
0C
#851
b00000000000000000000000110100100 )
1C
#852
0C
#853
b00000000000000000000000110100101 )
1C
#854
0C
#855
b00000000000000000000000110100110 )
1C
#856
0C
#857
b00000000000000000000000110100111 )
1C
#858
0C
#859
b00000000000000000000000110101000 )
1C
#860
0C
#861
b00000000000000000000000110101001 )
1C
#862
0C
#863
b00000000000000000000000110101010 )
1C
#864
0C
#865
b00000000000000000000000110101011 )
1C
#866
0C
#867
b00000000000000000000000110101100 )
1C
#868
0C
#869
b00000000000000000000000110101101 )
1C
#870
0C
#871
b00000000000000000000000110101110 )
1C
#872
0C
#873
b00000000000000000000000110101111 )
1C
#874
0C
#875
b00000000000000000000000110110000 )
1C
#876
0C
#877
b00000000000000000000000110110001 )
1C
#878
0C
#879
b00000000000000000000000110110010 )
1C
#880
0C
#881
b00000000000000000000000110110011 )
1C
#882
0C
#883
b00000000000000000000000110110100 )
1C
#884
0C
#885
b00000000000000000000000110110101 )
1C
#886
0C
#887
b00000000000000000000000110110110 )
1C
#888
0C
#889
b00000000000000000000000110110111 )
1C
#890
0C
#891
b00000000000000000000000110111000 )
1C
#892
0C
#893
b00000000000000000000000110111001 )
1C
#894
0C
#895
b00000000000000000000000110111010 )
1C
#896
0C
#897
b00000000000000000000000110111011 )
1C
#898
0C
#899
b00000000000000000000000110111100 )
1C
#900
0C
#901
b00000000000000000000000110111101 )
1C
#902
0C
#903
b00000000000000000000000110111110 )
1C
#904
0C
#905
b00000000000000000000000110111111 )
1C
#906
0C
#907
b00000000000000000000000111000000 )
1C
#908
0C
#909
b00000000000000000000000111000001 )
1C
#910
0C
#911
b00000000000000000000000111000010 )
1C
#912
0C
#913
b00000000000000000000000111000011 )
1C
#914
0C
#915
b00000000000000000000000111000100 )
1C
#916
0C
#917
b00000000000000000000000111000101 )
1C
#918
0C
#919
b00000000000000000000000111000110 )
1C
#920
0C
#921
b00000000000000000000000111000111 )
1C
#922
0C
#923
b00000000000000000000000111001000 )
1C
#924
0C
#925
b00000000000000000000000111001001 )
1C
#926
0C
#927
b00000000000000000000000111001010 )
1C
#928
0C
#929
b00000000000000000000000111001011 )
1C
#930
0C
#931
b00000000000000000000000111001100 )
1C
#932
0C
#933
b00000000000000000000000111001101 )
1C
#934
0C
#935
b00000000000000000000000111001110 )
1C
#936
0C
#937
b00000000000000000000000111001111 )
1C
#938
0C
#939
b00000000000000000000000111010000 )
1C
#940
0C
#941
b00000000000000000000000111010001 )
1C
#942
0C
#943
b00000000000000000000000111010010 )
1C
#944
0C
#945
b00000000000000000000000111010011 )
1C
#946
0C
#947
b00000000000000000000000111010100 )
1C
#948
0C
